<?xml version="1.0" encoding="utf-8" standalone="no"?>
<!DOCTYPE svg PUBLIC "-//W3C//DTD SVG 1.1//EN"
  "http://www.w3.org/Graphics/SVG/1.1/DTD/svg11.dtd">
<svg xmlns:xlink="http://www.w3.org/1999/xlink" width="1728pt" height="360pt" viewBox="0 0 1728 360" xmlns="http://www.w3.org/2000/svg" version="1.1">
 <metadata>
  <rdf:RDF xmlns:dc="http://purl.org/dc/elements/1.1/" xmlns:cc="http://creativecommons.org/ns#" xmlns:rdf="http://www.w3.org/1999/02/22-rdf-syntax-ns#">
   <cc:Work>
    <dc:type rdf:resource="http://purl.org/dc/dcmitype/StillImage"/>
    <dc:date>2024-09-09T11:16:55.508950</dc:date>
    <dc:format>image/svg+xml</dc:format>
    <dc:creator>
     <cc:Agent>
      <dc:title>Matplotlib v3.8.4, https://matplotlib.org/</dc:title>
     </cc:Agent>
    </dc:creator>
   </cc:Work>
  </rdf:RDF>
 </metadata>
 <defs>
  <style type="text/css">*{stroke-linejoin: round; stroke-linecap: butt}</style>
 </defs>
 <g id="figure_1">
  <g id="patch_1">
   <path d="M 0 360 
L 1728 360 
L 1728 0 
L 0 0 
z
" style="fill: #ffffff"/>
  </g>
  <g id="axes_1">
   <g id="patch_2">
    <path d="M 65.11 328.52 
L 1469.98 328.52 
L 1469.98 13.990671 
L 65.11 13.990671 
z
" style="fill: #ffffff"/>
   </g>
   <g id="matplotlib.axis_1">
    <g id="xtick_1">
     <g id="line2d_1">
      <defs>
       <path id="m24a753f064" d="M 0 0 
L 0 3.5 
" style="stroke: #000000; stroke-width: 0.8"/>
      </defs>
      <g>
       <use xlink:href="#m24a753f064" x="128.967727" y="328.52" style="stroke: #000000; stroke-width: 0.8"/>
      </g>
     </g>
     <g id="text_1">
      <!-- 2024-03-20 -->
      <g transform="translate(88.28679 346.157812) scale(0.14 -0.14)">
       <defs>
        <path id="DejaVuSans-32" d="M 1228 531 
L 3431 531 
L 3431 0 
L 469 0 
L 469 531 
Q 828 903 1448 1529 
Q 2069 2156 2228 2338 
Q 2531 2678 2651 2914 
Q 2772 3150 2772 3378 
Q 2772 3750 2511 3984 
Q 2250 4219 1831 4219 
Q 1534 4219 1204 4116 
Q 875 4013 500 3803 
L 500 4441 
Q 881 4594 1212 4672 
Q 1544 4750 1819 4750 
Q 2544 4750 2975 4387 
Q 3406 4025 3406 3419 
Q 3406 3131 3298 2873 
Q 3191 2616 2906 2266 
Q 2828 2175 2409 1742 
Q 1991 1309 1228 531 
z
" transform="scale(0.015625)"/>
        <path id="DejaVuSans-30" d="M 2034 4250 
Q 1547 4250 1301 3770 
Q 1056 3291 1056 2328 
Q 1056 1369 1301 889 
Q 1547 409 2034 409 
Q 2525 409 2770 889 
Q 3016 1369 3016 2328 
Q 3016 3291 2770 3770 
Q 2525 4250 2034 4250 
z
M 2034 4750 
Q 2819 4750 3233 4129 
Q 3647 3509 3647 2328 
Q 3647 1150 3233 529 
Q 2819 -91 2034 -91 
Q 1250 -91 836 529 
Q 422 1150 422 2328 
Q 422 3509 836 4129 
Q 1250 4750 2034 4750 
z
" transform="scale(0.015625)"/>
        <path id="DejaVuSans-34" d="M 2419 4116 
L 825 1625 
L 2419 1625 
L 2419 4116 
z
M 2253 4666 
L 3047 4666 
L 3047 1625 
L 3713 1625 
L 3713 1100 
L 3047 1100 
L 3047 0 
L 2419 0 
L 2419 1100 
L 313 1100 
L 313 1709 
L 2253 4666 
z
" transform="scale(0.015625)"/>
        <path id="DejaVuSans-2d" d="M 313 2009 
L 1997 2009 
L 1997 1497 
L 313 1497 
L 313 2009 
z
" transform="scale(0.015625)"/>
        <path id="DejaVuSans-33" d="M 2597 2516 
Q 3050 2419 3304 2112 
Q 3559 1806 3559 1356 
Q 3559 666 3084 287 
Q 2609 -91 1734 -91 
Q 1441 -91 1130 -33 
Q 819 25 488 141 
L 488 750 
Q 750 597 1062 519 
Q 1375 441 1716 441 
Q 2309 441 2620 675 
Q 2931 909 2931 1356 
Q 2931 1769 2642 2001 
Q 2353 2234 1838 2234 
L 1294 2234 
L 1294 2753 
L 1863 2753 
Q 2328 2753 2575 2939 
Q 2822 3125 2822 3475 
Q 2822 3834 2567 4026 
Q 2313 4219 1838 4219 
Q 1578 4219 1281 4162 
Q 984 4106 628 3988 
L 628 4550 
Q 988 4650 1302 4700 
Q 1616 4750 1894 4750 
Q 2613 4750 3031 4423 
Q 3450 4097 3450 3541 
Q 3450 3153 3228 2886 
Q 3006 2619 2597 2516 
z
" transform="scale(0.015625)"/>
       </defs>
       <use xlink:href="#DejaVuSans-32"/>
       <use xlink:href="#DejaVuSans-30" x="63.623047"/>
       <use xlink:href="#DejaVuSans-32" x="127.246094"/>
       <use xlink:href="#DejaVuSans-34" x="190.869141"/>
       <use xlink:href="#DejaVuSans-2d" x="254.492188"/>
       <use xlink:href="#DejaVuSans-30" x="290.576172"/>
       <use xlink:href="#DejaVuSans-33" x="354.199219"/>
       <use xlink:href="#DejaVuSans-2d" x="417.822266"/>
       <use xlink:href="#DejaVuSans-32" x="453.90625"/>
       <use xlink:href="#DejaVuSans-30" x="517.529297"/>
      </g>
     </g>
    </g>
    <g id="xtick_2">
     <g id="line2d_2">
      <g>
       <use xlink:href="#m24a753f064" x="312.510895" y="328.52" style="stroke: #000000; stroke-width: 0.8"/>
      </g>
     </g>
     <g id="text_2">
      <!-- 2024-03-21 -->
      <g transform="translate(271.829958 346.157812) scale(0.14 -0.14)">
       <defs>
        <path id="DejaVuSans-31" d="M 794 531 
L 1825 531 
L 1825 4091 
L 703 3866 
L 703 4441 
L 1819 4666 
L 2450 4666 
L 2450 531 
L 3481 531 
L 3481 0 
L 794 0 
L 794 531 
z
" transform="scale(0.015625)"/>
       </defs>
       <use xlink:href="#DejaVuSans-32"/>
       <use xlink:href="#DejaVuSans-30" x="63.623047"/>
       <use xlink:href="#DejaVuSans-32" x="127.246094"/>
       <use xlink:href="#DejaVuSans-34" x="190.869141"/>
       <use xlink:href="#DejaVuSans-2d" x="254.492188"/>
       <use xlink:href="#DejaVuSans-30" x="290.576172"/>
       <use xlink:href="#DejaVuSans-33" x="354.199219"/>
       <use xlink:href="#DejaVuSans-2d" x="417.822266"/>
       <use xlink:href="#DejaVuSans-32" x="453.90625"/>
       <use xlink:href="#DejaVuSans-31" x="517.529297"/>
      </g>
     </g>
    </g>
    <g id="xtick_3">
     <g id="line2d_3">
      <g>
       <use xlink:href="#m24a753f064" x="496.054064" y="328.52" style="stroke: #000000; stroke-width: 0.8"/>
      </g>
     </g>
     <g id="text_3">
      <!-- 2024-03-22 -->
      <g transform="translate(455.373126 346.157812) scale(0.14 -0.14)">
       <use xlink:href="#DejaVuSans-32"/>
       <use xlink:href="#DejaVuSans-30" x="63.623047"/>
       <use xlink:href="#DejaVuSans-32" x="127.246094"/>
       <use xlink:href="#DejaVuSans-34" x="190.869141"/>
       <use xlink:href="#DejaVuSans-2d" x="254.492188"/>
       <use xlink:href="#DejaVuSans-30" x="290.576172"/>
       <use xlink:href="#DejaVuSans-33" x="354.199219"/>
       <use xlink:href="#DejaVuSans-2d" x="417.822266"/>
       <use xlink:href="#DejaVuSans-32" x="453.90625"/>
       <use xlink:href="#DejaVuSans-32" x="517.529297"/>
      </g>
     </g>
    </g>
    <g id="xtick_4">
     <g id="line2d_4">
      <g>
       <use xlink:href="#m24a753f064" x="679.597232" y="328.52" style="stroke: #000000; stroke-width: 0.8"/>
      </g>
     </g>
     <g id="text_4">
      <!-- 2024-03-23 -->
      <g transform="translate(638.916294 346.157812) scale(0.14 -0.14)">
       <use xlink:href="#DejaVuSans-32"/>
       <use xlink:href="#DejaVuSans-30" x="63.623047"/>
       <use xlink:href="#DejaVuSans-32" x="127.246094"/>
       <use xlink:href="#DejaVuSans-34" x="190.869141"/>
       <use xlink:href="#DejaVuSans-2d" x="254.492188"/>
       <use xlink:href="#DejaVuSans-30" x="290.576172"/>
       <use xlink:href="#DejaVuSans-33" x="354.199219"/>
       <use xlink:href="#DejaVuSans-2d" x="417.822266"/>
       <use xlink:href="#DejaVuSans-32" x="453.90625"/>
       <use xlink:href="#DejaVuSans-33" x="517.529297"/>
      </g>
     </g>
    </g>
    <g id="xtick_5">
     <g id="line2d_5">
      <g>
       <use xlink:href="#m24a753f064" x="863.1404" y="328.52" style="stroke: #000000; stroke-width: 0.8"/>
      </g>
     </g>
     <g id="text_5">
      <!-- 2024-03-24 -->
      <g transform="translate(822.459463 346.157812) scale(0.14 -0.14)">
       <use xlink:href="#DejaVuSans-32"/>
       <use xlink:href="#DejaVuSans-30" x="63.623047"/>
       <use xlink:href="#DejaVuSans-32" x="127.246094"/>
       <use xlink:href="#DejaVuSans-34" x="190.869141"/>
       <use xlink:href="#DejaVuSans-2d" x="254.492188"/>
       <use xlink:href="#DejaVuSans-30" x="290.576172"/>
       <use xlink:href="#DejaVuSans-33" x="354.199219"/>
       <use xlink:href="#DejaVuSans-2d" x="417.822266"/>
       <use xlink:href="#DejaVuSans-32" x="453.90625"/>
       <use xlink:href="#DejaVuSans-34" x="517.529297"/>
      </g>
     </g>
    </g>
    <g id="xtick_6">
     <g id="line2d_6">
      <g>
       <use xlink:href="#m24a753f064" x="1046.683568" y="328.52" style="stroke: #000000; stroke-width: 0.8"/>
      </g>
     </g>
     <g id="text_6">
      <!-- 2024-03-25 -->
      <g transform="translate(1006.002631 346.157812) scale(0.14 -0.14)">
       <defs>
        <path id="DejaVuSans-35" d="M 691 4666 
L 3169 4666 
L 3169 4134 
L 1269 4134 
L 1269 2991 
Q 1406 3038 1543 3061 
Q 1681 3084 1819 3084 
Q 2600 3084 3056 2656 
Q 3513 2228 3513 1497 
Q 3513 744 3044 326 
Q 2575 -91 1722 -91 
Q 1428 -91 1123 -41 
Q 819 9 494 109 
L 494 744 
Q 775 591 1075 516 
Q 1375 441 1709 441 
Q 2250 441 2565 725 
Q 2881 1009 2881 1497 
Q 2881 1984 2565 2268 
Q 2250 2553 1709 2553 
Q 1456 2553 1204 2497 
Q 953 2441 691 2322 
L 691 4666 
z
" transform="scale(0.015625)"/>
       </defs>
       <use xlink:href="#DejaVuSans-32"/>
       <use xlink:href="#DejaVuSans-30" x="63.623047"/>
       <use xlink:href="#DejaVuSans-32" x="127.246094"/>
       <use xlink:href="#DejaVuSans-34" x="190.869141"/>
       <use xlink:href="#DejaVuSans-2d" x="254.492188"/>
       <use xlink:href="#DejaVuSans-30" x="290.576172"/>
       <use xlink:href="#DejaVuSans-33" x="354.199219"/>
       <use xlink:href="#DejaVuSans-2d" x="417.822266"/>
       <use xlink:href="#DejaVuSans-32" x="453.90625"/>
       <use xlink:href="#DejaVuSans-35" x="517.529297"/>
      </g>
     </g>
    </g>
    <g id="xtick_7">
     <g id="line2d_7">
      <g>
       <use xlink:href="#m24a753f064" x="1230.226737" y="328.52" style="stroke: #000000; stroke-width: 0.8"/>
      </g>
     </g>
     <g id="text_7">
      <!-- 2024-03-26 -->
      <g transform="translate(1189.545799 346.157812) scale(0.14 -0.14)">
       <defs>
        <path id="DejaVuSans-36" d="M 2113 2584 
Q 1688 2584 1439 2293 
Q 1191 2003 1191 1497 
Q 1191 994 1439 701 
Q 1688 409 2113 409 
Q 2538 409 2786 701 
Q 3034 994 3034 1497 
Q 3034 2003 2786 2293 
Q 2538 2584 2113 2584 
z
M 3366 4563 
L 3366 3988 
Q 3128 4100 2886 4159 
Q 2644 4219 2406 4219 
Q 1781 4219 1451 3797 
Q 1122 3375 1075 2522 
Q 1259 2794 1537 2939 
Q 1816 3084 2150 3084 
Q 2853 3084 3261 2657 
Q 3669 2231 3669 1497 
Q 3669 778 3244 343 
Q 2819 -91 2113 -91 
Q 1303 -91 875 529 
Q 447 1150 447 2328 
Q 447 3434 972 4092 
Q 1497 4750 2381 4750 
Q 2619 4750 2861 4703 
Q 3103 4656 3366 4563 
z
" transform="scale(0.015625)"/>
       </defs>
       <use xlink:href="#DejaVuSans-32"/>
       <use xlink:href="#DejaVuSans-30" x="63.623047"/>
       <use xlink:href="#DejaVuSans-32" x="127.246094"/>
       <use xlink:href="#DejaVuSans-34" x="190.869141"/>
       <use xlink:href="#DejaVuSans-2d" x="254.492188"/>
       <use xlink:href="#DejaVuSans-30" x="290.576172"/>
       <use xlink:href="#DejaVuSans-33" x="354.199219"/>
       <use xlink:href="#DejaVuSans-2d" x="417.822266"/>
       <use xlink:href="#DejaVuSans-32" x="453.90625"/>
       <use xlink:href="#DejaVuSans-36" x="517.529297"/>
      </g>
     </g>
    </g>
    <g id="xtick_8">
     <g id="line2d_8">
      <g>
       <use xlink:href="#m24a753f064" x="1413.769905" y="328.52" style="stroke: #000000; stroke-width: 0.8"/>
      </g>
     </g>
     <g id="text_8">
      <!-- 2024-03-27 -->
      <g transform="translate(1373.088967 346.157812) scale(0.14 -0.14)">
       <defs>
        <path id="DejaVuSans-37" d="M 525 4666 
L 3525 4666 
L 3525 4397 
L 1831 0 
L 1172 0 
L 2766 4134 
L 525 4134 
L 525 4666 
z
" transform="scale(0.015625)"/>
       </defs>
       <use xlink:href="#DejaVuSans-32"/>
       <use xlink:href="#DejaVuSans-30" x="63.623047"/>
       <use xlink:href="#DejaVuSans-32" x="127.246094"/>
       <use xlink:href="#DejaVuSans-34" x="190.869141"/>
       <use xlink:href="#DejaVuSans-2d" x="254.492188"/>
       <use xlink:href="#DejaVuSans-30" x="290.576172"/>
       <use xlink:href="#DejaVuSans-33" x="354.199219"/>
       <use xlink:href="#DejaVuSans-2d" x="417.822266"/>
       <use xlink:href="#DejaVuSans-32" x="453.90625"/>
       <use xlink:href="#DejaVuSans-37" x="517.529297"/>
      </g>
     </g>
    </g>
   </g>
   <g id="matplotlib.axis_2">
    <g id="ytick_1">
     <g id="line2d_9">
      <path d="M 65.11 314.223212 
L 1469.98 314.223212 
" clip-path="url(#p6ba1999472)" style="fill: none; stroke: #b0b0b0; stroke-opacity: 0.5; stroke-width: 1.2; stroke-linecap: square"/>
     </g>
     <g id="line2d_10">
      <defs>
       <path id="m19d1c5060a" d="M 0 0 
L -3.5 0 
" style="stroke: #000000; stroke-width: 0.8"/>
      </defs>
      <g>
       <use xlink:href="#m19d1c5060a" x="65.11" y="314.223212" style="stroke: #000000; stroke-width: 0.8"/>
      </g>
     </g>
     <g id="text_9">
      <!-- 0 -->
      <g transform="translate(49.2025 319.542119) scale(0.14 -0.14)">
       <use xlink:href="#DejaVuSans-30"/>
      </g>
     </g>
    </g>
    <g id="ytick_2">
     <g id="line2d_11">
      <path d="M 65.11 254.678074 
L 1469.98 254.678074 
" clip-path="url(#p6ba1999472)" style="fill: none; stroke: #b0b0b0; stroke-opacity: 0.5; stroke-width: 1.2; stroke-linecap: square"/>
     </g>
     <g id="line2d_12">
      <g>
       <use xlink:href="#m19d1c5060a" x="65.11" y="254.678074" style="stroke: #000000; stroke-width: 0.8"/>
      </g>
     </g>
     <g id="text_10">
      <!-- 5 -->
      <g transform="translate(49.2025 259.99698) scale(0.14 -0.14)">
       <use xlink:href="#DejaVuSans-35"/>
      </g>
     </g>
    </g>
    <g id="ytick_3">
     <g id="line2d_13">
      <path d="M 65.11 195.132936 
L 1469.98 195.132936 
" clip-path="url(#p6ba1999472)" style="fill: none; stroke: #b0b0b0; stroke-opacity: 0.5; stroke-width: 1.2; stroke-linecap: square"/>
     </g>
     <g id="line2d_14">
      <g>
       <use xlink:href="#m19d1c5060a" x="65.11" y="195.132936" style="stroke: #000000; stroke-width: 0.8"/>
      </g>
     </g>
     <g id="text_11">
      <!-- 10 -->
      <g transform="translate(40.295 200.451842) scale(0.14 -0.14)">
       <use xlink:href="#DejaVuSans-31"/>
       <use xlink:href="#DejaVuSans-30" x="63.623047"/>
      </g>
     </g>
    </g>
    <g id="ytick_4">
     <g id="line2d_15">
      <path d="M 65.11 135.587797 
L 1469.98 135.587797 
" clip-path="url(#p6ba1999472)" style="fill: none; stroke: #b0b0b0; stroke-opacity: 0.5; stroke-width: 1.2; stroke-linecap: square"/>
     </g>
     <g id="line2d_16">
      <g>
       <use xlink:href="#m19d1c5060a" x="65.11" y="135.587797" style="stroke: #000000; stroke-width: 0.8"/>
      </g>
     </g>
     <g id="text_12">
      <!-- 15 -->
      <g transform="translate(40.295 140.906704) scale(0.14 -0.14)">
       <use xlink:href="#DejaVuSans-31"/>
       <use xlink:href="#DejaVuSans-35" x="63.623047"/>
      </g>
     </g>
    </g>
    <g id="ytick_5">
     <g id="line2d_17">
      <path d="M 65.11 76.042659 
L 1469.98 76.042659 
" clip-path="url(#p6ba1999472)" style="fill: none; stroke: #b0b0b0; stroke-opacity: 0.5; stroke-width: 1.2; stroke-linecap: square"/>
     </g>
     <g id="line2d_18">
      <g>
       <use xlink:href="#m19d1c5060a" x="65.11" y="76.042659" style="stroke: #000000; stroke-width: 0.8"/>
      </g>
     </g>
     <g id="text_13">
      <!-- 20 -->
      <g transform="translate(40.295 81.361565) scale(0.14 -0.14)">
       <use xlink:href="#DejaVuSans-32"/>
       <use xlink:href="#DejaVuSans-30" x="63.623047"/>
      </g>
     </g>
    </g>
    <g id="ytick_6">
     <g id="line2d_19">
      <path d="M 65.11 16.497521 
L 1469.98 16.497521 
" clip-path="url(#p6ba1999472)" style="fill: none; stroke: #b0b0b0; stroke-opacity: 0.5; stroke-width: 1.2; stroke-linecap: square"/>
     </g>
     <g id="line2d_20">
      <g>
       <use xlink:href="#m19d1c5060a" x="65.11" y="16.497521" style="stroke: #000000; stroke-width: 0.8"/>
      </g>
     </g>
     <g id="text_14">
      <!-- 25 -->
      <g transform="translate(40.295 21.816427) scale(0.14 -0.14)">
       <use xlink:href="#DejaVuSans-32"/>
       <use xlink:href="#DejaVuSans-35" x="63.623047"/>
      </g>
     </g>
    </g>
    <g id="text_15">
     <!-- KWh -->
     <g transform="translate(21.9675 189.191585) rotate(-90) scale(0.16 -0.16)">
      <defs>
       <path id="DejaVuSans-4b" d="M 628 4666 
L 1259 4666 
L 1259 2694 
L 3353 4666 
L 4166 4666 
L 1850 2491 
L 4331 0 
L 3500 0 
L 1259 2247 
L 1259 0 
L 628 0 
L 628 4666 
z
" transform="scale(0.015625)"/>
       <path id="DejaVuSans-57" d="M 213 4666 
L 850 4666 
L 1831 722 
L 2809 4666 
L 3519 4666 
L 4500 722 
L 5478 4666 
L 6119 4666 
L 4947 0 
L 4153 0 
L 3169 4050 
L 2175 0 
L 1381 0 
L 213 4666 
z
" transform="scale(0.015625)"/>
       <path id="DejaVuSans-68" d="M 3513 2113 
L 3513 0 
L 2938 0 
L 2938 2094 
Q 2938 2591 2744 2837 
Q 2550 3084 2163 3084 
Q 1697 3084 1428 2787 
Q 1159 2491 1159 1978 
L 1159 0 
L 581 0 
L 581 4863 
L 1159 4863 
L 1159 2956 
Q 1366 3272 1645 3428 
Q 1925 3584 2291 3584 
Q 2894 3584 3203 3211 
Q 3513 2838 3513 2113 
z
" transform="scale(0.015625)"/>
      </defs>
      <use xlink:href="#DejaVuSans-4b"/>
      <use xlink:href="#DejaVuSans-57" x="61.951172"/>
      <use xlink:href="#DejaVuSans-68" x="160.828125"/>
     </g>
    </g>
   </g>
   <g id="line2d_21">
    <path d="M 128.967727 314.223212 
L 167.205887 314.223212 
L 174.853519 309.10233 
L 182.501151 259.322595 
L 190.148783 226.810949 
L 197.796415 181.913915 
L 205.444047 147.139554 
L 213.091679 156.428596 
L 220.739311 161.073117 
L 228.386943 193.584762 
L 236.034575 160.596756 
L 243.682207 231.931831 
L 251.329839 287.30881 
L 258.977471 308.149608 
L 266.625103 313.746851 
L 274.272735 314.223212 
L 350.749056 314.223212 
L 358.396688 303.862358 
L 366.04432 282.545199 
L 373.691952 250.152644 
L 381.339584 188.582971 
L 388.987216 104.267055 
L 396.634848 114.032457 
L 404.28248 109.268846 
L 411.930112 180.603922 
L 419.577744 186.558436 
L 427.225376 211.329213 
L 434.873008 258.012602 
L 442.52064 289.809706 
L 450.168272 313.27049 
L 457.815904 314.223212 
L 534.292224 314.223212 
L 541.939856 311.126865 
L 549.587488 288.023351 
L 557.23512 221.570977 
L 564.882752 146.305922 
L 572.530384 111.531562 
L 580.178016 113.675187 
L 587.825648 115.937902 
L 595.47328 73.065402 
L 603.120912 146.305922 
L 610.768544 245.746303 
L 618.416176 264.919838 
L 626.063808 300.17056 
L 633.71144 313.746851 
L 641.359072 314.223212 
L 717.835392 314.223212 
L 725.483024 313.985032 
L 733.130656 309.935962 
L 740.778288 296.0024 
L 748.42592 241.578144 
L 763.721184 284.450643 
L 771.368816 295.526039 
L 779.016448 244.43631 
L 786.66408 232.884553 
L 794.311712 278.019768 
L 801.959344 309.459601 
L 809.606976 309.10233 
L 817.254608 313.746851 
L 824.90224 314.223212 
L 901.37856 314.223212 
L 909.026192 306.839615 
L 916.673824 277.781588 
L 924.321456 201.801991 
L 931.969088 139.755957 
L 939.61672 81.401722 
L 947.264352 45.079187 
L 954.911984 28.287458 
L 962.559616 77.590833 
L 970.207248 248.009019 
L 977.85488 250.152644 
L 985.502512 267.658914 
L 993.150144 301.956914 
L 1000.797776 314.223212 
L 1084.921728 314.223212 
L 1092.56936 311.007775 
L 1100.216992 291.953331 
L 1107.864624 229.073665 
L 1115.512256 231.57456 
L 1123.159888 128.561471 
L 1130.80752 103.433423 
L 1138.455152 157.262228 
L 1146.102784 166.193999 
L 1153.750416 206.922873 
L 1161.398048 272.422525 
L 1169.04568 294.216046 
L 1176.693312 310.650504 
L 1184.340944 314.223212 
L 1268.464897 314.223212 
L 1276.112529 310.888685 
L 1283.760161 289.809706 
L 1291.407793 215.497373 
L 1306.703057 131.181457 
L 1314.350689 187.630248 
L 1321.998321 247.532657 
L 1329.645953 220.260984 
L 1337.293585 111.293381 
L 1344.941217 216.092824 
L 1352.588849 234.909088 
L 1360.236481 305.529622 
L 1367.884113 314.223212 
L 1406.122273 314.223212 
L 1406.122273 314.223212 
" clip-path="url(#p6ba1999472)" style="fill: none; stroke: #1f77b4; stroke-opacity: 0.8; stroke-width: 2.5; stroke-linecap: square"/>
   </g>
   <g id="line2d_22">
    <path d="M 128.967727 314.223212 
L 167.205887 314.223212 
L 174.853519 300.28965 
L 182.501151 255.868977 
L 190.148783 195.847477 
L 197.796415 133.920534 
L 205.444047 96.883458 
L 213.091679 83.902617 
L 220.739311 93.54893 
L 228.386943 124.750582 
L 236.034575 159.524943 
L 243.682207 210.376491 
L 251.329839 258.727143 
L 258.977471 298.146025 
L 266.625103 313.985032 
L 274.272735 314.223212 
L 350.749056 314.223212 
L 358.396688 300.28965 
L 366.04432 255.868977 
L 373.691952 195.847477 
L 381.339584 133.920534 
L 388.987216 96.883458 
L 396.634848 83.902617 
L 404.28248 93.54893 
L 411.930112 124.750582 
L 419.577744 159.524943 
L 427.225376 210.376491 
L 434.873008 258.727143 
L 442.52064 298.146025 
L 450.168272 313.985032 
L 457.815904 314.223212 
L 534.292224 314.223212 
L 541.939856 300.28965 
L 549.587488 255.868977 
L 557.23512 195.847477 
L 564.882752 133.920534 
L 572.530384 96.883458 
L 580.178016 83.902617 
L 587.825648 93.54893 
L 595.47328 124.750582 
L 603.120912 159.524943 
L 610.768544 210.376491 
L 618.416176 258.727143 
L 626.063808 298.146025 
L 633.71144 313.985032 
L 641.359072 314.223212 
L 717.835392 314.223212 
L 725.483024 300.28965 
L 733.130656 255.868977 
L 740.778288 195.847477 
L 748.42592 133.920534 
L 756.073552 96.883458 
L 763.721184 83.902617 
L 771.368816 93.54893 
L 779.016448 124.750582 
L 786.66408 159.524943 
L 794.311712 210.376491 
L 801.959344 258.727143 
L 809.606976 298.146025 
L 817.254608 313.985032 
L 824.90224 314.223212 
L 901.37856 314.223212 
L 909.026192 300.28965 
L 916.673824 255.868977 
L 924.321456 195.847477 
L 931.969088 133.920534 
L 939.61672 96.883458 
L 947.264352 83.902617 
L 954.911984 93.54893 
L 962.559616 124.750582 
L 970.207248 159.524943 
L 977.85488 210.376491 
L 985.502512 258.727143 
L 993.150144 298.146025 
L 1000.797776 313.985032 
L 1008.445408 314.223212 
L 1084.921728 314.223212 
L 1092.56936 300.28965 
L 1100.216992 255.868977 
L 1107.864624 195.847477 
L 1115.512256 133.920534 
L 1123.159888 96.883458 
L 1130.80752 83.902617 
L 1138.455152 93.54893 
L 1146.102784 124.750582 
L 1153.750416 159.524943 
L 1161.398048 210.376491 
L 1169.04568 258.727143 
L 1176.693312 298.146025 
L 1184.340944 313.985032 
L 1191.988576 314.223212 
L 1268.464897 314.223212 
L 1276.112529 300.28965 
L 1283.760161 255.868977 
L 1291.407793 195.847477 
L 1299.055425 133.920534 
L 1306.703057 96.883458 
L 1314.350689 83.902617 
L 1321.998321 93.54893 
L 1329.645953 124.750582 
L 1337.293585 159.524943 
L 1344.941217 210.376491 
L 1352.588849 258.727143 
L 1360.236481 298.146025 
L 1367.884113 313.985032 
L 1375.531745 314.223212 
L 1406.122273 314.223212 
L 1406.122273 314.223212 
" clip-path="url(#p6ba1999472)" style="fill: none; stroke: #e8000b; stroke-opacity: 0.8; stroke-width: 2.5; stroke-linecap: square"/>
   </g>
   <g id="line2d_23">
    <path d="M 128.967727 307.085112 
L 151.910623 307.061538 
L 159.558255 306.738002 
L 167.205887 306.021022 
L 174.853519 291.440795 
L 182.501151 247.063206 
L 190.148783 190.146996 
L 197.796415 140.649744 
L 205.444047 110.997078 
L 213.091679 104.709274 
L 220.739311 115.746463 
L 228.386943 141.812601 
L 236.034575 170.675939 
L 243.682207 214.675122 
L 251.329839 256.767641 
L 258.977471 290.733163 
L 266.625103 306.030777 
L 274.272735 307.176157 
L 289.567999 307.128602 
L 304.863263 307.156647 
L 320.158527 307.061538 
L 335.453792 307.061538 
L 343.101424 306.738002 
L 350.749056 306.021022 
L 358.396688 291.440795 
L 366.04432 247.063206 
L 373.691952 190.146996 
L 381.339584 140.649744 
L 388.987216 110.997078 
L 396.634848 104.709274 
L 404.28248 115.746463 
L 411.930112 141.812601 
L 419.577744 170.675939 
L 427.225376 214.675122 
L 434.873008 256.767641 
L 442.52064 290.733163 
L 450.168272 306.030777 
L 457.815904 307.176157 
L 473.111168 307.128602 
L 488.406432 307.156647 
L 503.701696 307.061538 
L 518.99696 307.061538 
L 526.644592 306.738002 
L 534.292224 306.021022 
L 541.939856 291.440795 
L 549.587488 247.063206 
L 557.23512 190.146996 
L 564.882752 140.649744 
L 572.530384 110.997078 
L 580.178016 104.709274 
L 587.825648 115.746463 
L 595.47328 141.812601 
L 603.120912 170.675939 
L 610.768544 214.675122 
L 618.416176 256.767641 
L 626.063808 290.733163 
L 633.71144 306.030777 
L 641.359072 307.176157 
L 656.654336 307.128602 
L 671.9496 307.156647 
L 687.244864 307.061538 
L 702.540128 307.061538 
L 710.18776 306.738002 
L 717.835392 306.021022 
L 725.483024 291.440795 
L 733.130656 247.063206 
L 740.778288 190.146996 
L 748.42592 140.649744 
L 756.073552 110.997078 
L 763.721184 104.709274 
L 771.368816 115.746463 
L 779.016448 141.812601 
L 786.66408 170.675939 
L 794.311712 214.675122 
L 801.959344 256.767641 
L 809.606976 290.733163 
L 817.254608 306.030777 
L 824.90224 307.176157 
L 840.197504 307.128602 
L 855.492768 307.156647 
L 870.788032 307.061538 
L 886.083296 307.061538 
L 893.730928 306.738002 
L 901.37856 306.021022 
L 909.026192 291.440795 
L 916.673824 247.063206 
L 924.321456 190.146996 
L 931.969088 140.649744 
L 939.61672 110.997078 
L 947.264352 104.709274 
L 954.911984 115.746463 
L 962.559616 141.812601 
L 970.207248 170.675939 
L 977.85488 214.675122 
L 985.502512 256.767641 
L 993.150144 290.733163 
L 1000.797776 306.030777 
L 1008.445408 307.176157 
L 1023.740672 307.128602 
L 1039.035936 307.156647 
L 1054.3312 307.061538 
L 1069.626464 307.061538 
L 1077.274096 306.738002 
L 1084.921728 306.021022 
L 1092.56936 291.440795 
L 1100.216992 247.063206 
L 1107.864624 190.146996 
L 1115.512256 140.649744 
L 1123.159888 110.997078 
L 1130.80752 104.709274 
L 1138.455152 115.746463 
L 1146.102784 141.812601 
L 1153.750416 170.675939 
L 1161.398048 214.675122 
L 1169.04568 256.767641 
L 1176.693312 290.733163 
L 1184.340944 306.030777 
L 1191.988576 307.176157 
L 1207.283841 307.128602 
L 1222.579105 307.156647 
L 1237.874369 307.061538 
L 1253.169633 307.061538 
L 1260.817265 306.738002 
L 1268.464897 306.021022 
L 1276.112529 291.440795 
L 1283.760161 247.063206 
L 1291.407793 190.146996 
L 1299.055425 140.649744 
L 1306.703057 110.997078 
L 1314.350689 104.709274 
L 1321.998321 115.746463 
L 1329.645953 141.812601 
L 1337.293585 170.675939 
L 1344.941217 214.675122 
L 1352.588849 256.767641 
L 1360.236481 290.733163 
L 1367.884113 306.030777 
L 1375.531745 307.176157 
L 1390.827009 307.128602 
L 1406.122273 307.156647 
L 1406.122273 307.156647 
" clip-path="url(#p6ba1999472)" style="fill: none; stroke: #1ac938; stroke-opacity: 0.8; stroke-width: 2.5; stroke-linecap: square"/>
   </g>
   <g id="patch_3">
    <path d="M 65.11 328.52 
L 65.11 13.990671 
" style="fill: none; stroke: #000000; stroke-width: 0.8; stroke-linejoin: miter; stroke-linecap: square"/>
   </g>
   <g id="patch_4">
    <path d="M 65.11 328.52 
L 1469.98 328.52 
" style="fill: none; stroke: #000000; stroke-width: 0.8; stroke-linejoin: miter; stroke-linecap: square"/>
   </g>
   <g id="legend_1">
    <g id="patch_5">
     <path d="M 1483.18 99.245671 
L 1715.87 99.245671 
Q 1719.07 99.245671 1719.07 96.045671 
L 1719.07 27.190671 
Q 1719.07 23.990671 1715.87 23.990671 
L 1483.18 23.990671 
Q 1479.98 23.990671 1479.98 27.190671 
L 1479.98 96.045671 
Q 1479.98 99.245671 1483.18 99.245671 
z
" style="fill: #4d4d4d; opacity: 0.5; stroke: #4d4d4d; stroke-linejoin: miter"/>
    </g>
    <g id="patch_6">
     <path d="M 1481.18 97.245671 
L 1713.87 97.245671 
Q 1717.07 97.245671 1717.07 94.045671 
L 1717.07 25.190671 
Q 1717.07 21.990671 1713.87 21.990671 
L 1481.18 21.990671 
Q 1477.98 21.990671 1477.98 25.190671 
L 1477.98 94.045671 
Q 1477.98 97.245671 1481.18 97.245671 
z
" style="fill: #ffffff; stroke: #cccccc; stroke-linejoin: miter"/>
    </g>
    <g id="line2d_24">
     <path d="M 1484.38 34.948171 
L 1500.38 34.948171 
L 1516.38 34.948171 
" style="fill: none; stroke: #1f77b4; stroke-opacity: 0.8; stroke-width: 2.5; stroke-linecap: square"/>
    </g>
    <g id="text_16">
     <!-- Test set -->
     <g transform="translate(1529.18 40.548171) scale(0.16 -0.16)">
      <defs>
       <path id="DejaVuSans-54" d="M -19 4666 
L 3928 4666 
L 3928 4134 
L 2272 4134 
L 2272 0 
L 1638 0 
L 1638 4134 
L -19 4134 
L -19 4666 
z
" transform="scale(0.015625)"/>
       <path id="DejaVuSans-65" d="M 3597 1894 
L 3597 1613 
L 953 1613 
Q 991 1019 1311 708 
Q 1631 397 2203 397 
Q 2534 397 2845 478 
Q 3156 559 3463 722 
L 3463 178 
Q 3153 47 2828 -22 
Q 2503 -91 2169 -91 
Q 1331 -91 842 396 
Q 353 884 353 1716 
Q 353 2575 817 3079 
Q 1281 3584 2069 3584 
Q 2775 3584 3186 3129 
Q 3597 2675 3597 1894 
z
M 3022 2063 
Q 3016 2534 2758 2815 
Q 2500 3097 2075 3097 
Q 1594 3097 1305 2825 
Q 1016 2553 972 2059 
L 3022 2063 
z
" transform="scale(0.015625)"/>
       <path id="DejaVuSans-73" d="M 2834 3397 
L 2834 2853 
Q 2591 2978 2328 3040 
Q 2066 3103 1784 3103 
Q 1356 3103 1142 2972 
Q 928 2841 928 2578 
Q 928 2378 1081 2264 
Q 1234 2150 1697 2047 
L 1894 2003 
Q 2506 1872 2764 1633 
Q 3022 1394 3022 966 
Q 3022 478 2636 193 
Q 2250 -91 1575 -91 
Q 1294 -91 989 -36 
Q 684 19 347 128 
L 347 722 
Q 666 556 975 473 
Q 1284 391 1588 391 
Q 1994 391 2212 530 
Q 2431 669 2431 922 
Q 2431 1156 2273 1281 
Q 2116 1406 1581 1522 
L 1381 1569 
Q 847 1681 609 1914 
Q 372 2147 372 2553 
Q 372 3047 722 3315 
Q 1072 3584 1716 3584 
Q 2034 3584 2315 3537 
Q 2597 3491 2834 3397 
z
" transform="scale(0.015625)"/>
       <path id="DejaVuSans-74" d="M 1172 4494 
L 1172 3500 
L 2356 3500 
L 2356 3053 
L 1172 3053 
L 1172 1153 
Q 1172 725 1289 603 
Q 1406 481 1766 481 
L 2356 481 
L 2356 0 
L 1766 0 
Q 1100 0 847 248 
Q 594 497 594 1153 
L 594 3053 
L 172 3053 
L 172 3500 
L 594 3500 
L 594 4494 
L 1172 4494 
z
" transform="scale(0.015625)"/>
       <path id="DejaVuSans-20" transform="scale(0.015625)"/>
      </defs>
      <use xlink:href="#DejaVuSans-54"/>
      <use xlink:href="#DejaVuSans-65" x="44.083984"/>
      <use xlink:href="#DejaVuSans-73" x="105.607422"/>
      <use xlink:href="#DejaVuSans-74" x="157.707031"/>
      <use xlink:href="#DejaVuSans-20" x="196.916016"/>
      <use xlink:href="#DejaVuSans-73" x="228.703125"/>
      <use xlink:href="#DejaVuSans-65" x="280.802734"/>
      <use xlink:href="#DejaVuSans-74" x="342.326172"/>
     </g>
    </g>
    <g id="line2d_25">
     <path d="M 1484.38 58.433171 
L 1500.38 58.433171 
L 1516.38 58.433171 
" style="fill: none; stroke: #e8000b; stroke-opacity: 0.8; stroke-width: 2.5; stroke-linecap: square"/>
    </g>
    <g id="text_17">
     <!-- Predict (Naive Median) -->
     <g transform="translate(1529.18 64.033171) scale(0.16 -0.16)">
      <defs>
       <path id="DejaVuSans-50" d="M 1259 4147 
L 1259 2394 
L 2053 2394 
Q 2494 2394 2734 2622 
Q 2975 2850 2975 3272 
Q 2975 3691 2734 3919 
Q 2494 4147 2053 4147 
L 1259 4147 
z
M 628 4666 
L 2053 4666 
Q 2838 4666 3239 4311 
Q 3641 3956 3641 3272 
Q 3641 2581 3239 2228 
Q 2838 1875 2053 1875 
L 1259 1875 
L 1259 0 
L 628 0 
L 628 4666 
z
" transform="scale(0.015625)"/>
       <path id="DejaVuSans-72" d="M 2631 2963 
Q 2534 3019 2420 3045 
Q 2306 3072 2169 3072 
Q 1681 3072 1420 2755 
Q 1159 2438 1159 1844 
L 1159 0 
L 581 0 
L 581 3500 
L 1159 3500 
L 1159 2956 
Q 1341 3275 1631 3429 
Q 1922 3584 2338 3584 
Q 2397 3584 2469 3576 
Q 2541 3569 2628 3553 
L 2631 2963 
z
" transform="scale(0.015625)"/>
       <path id="DejaVuSans-64" d="M 2906 2969 
L 2906 4863 
L 3481 4863 
L 3481 0 
L 2906 0 
L 2906 525 
Q 2725 213 2448 61 
Q 2172 -91 1784 -91 
Q 1150 -91 751 415 
Q 353 922 353 1747 
Q 353 2572 751 3078 
Q 1150 3584 1784 3584 
Q 2172 3584 2448 3432 
Q 2725 3281 2906 2969 
z
M 947 1747 
Q 947 1113 1208 752 
Q 1469 391 1925 391 
Q 2381 391 2643 752 
Q 2906 1113 2906 1747 
Q 2906 2381 2643 2742 
Q 2381 3103 1925 3103 
Q 1469 3103 1208 2742 
Q 947 2381 947 1747 
z
" transform="scale(0.015625)"/>
       <path id="DejaVuSans-69" d="M 603 3500 
L 1178 3500 
L 1178 0 
L 603 0 
L 603 3500 
z
M 603 4863 
L 1178 4863 
L 1178 4134 
L 603 4134 
L 603 4863 
z
" transform="scale(0.015625)"/>
       <path id="DejaVuSans-63" d="M 3122 3366 
L 3122 2828 
Q 2878 2963 2633 3030 
Q 2388 3097 2138 3097 
Q 1578 3097 1268 2742 
Q 959 2388 959 1747 
Q 959 1106 1268 751 
Q 1578 397 2138 397 
Q 2388 397 2633 464 
Q 2878 531 3122 666 
L 3122 134 
Q 2881 22 2623 -34 
Q 2366 -91 2075 -91 
Q 1284 -91 818 406 
Q 353 903 353 1747 
Q 353 2603 823 3093 
Q 1294 3584 2113 3584 
Q 2378 3584 2631 3529 
Q 2884 3475 3122 3366 
z
" transform="scale(0.015625)"/>
       <path id="DejaVuSans-28" d="M 1984 4856 
Q 1566 4138 1362 3434 
Q 1159 2731 1159 2009 
Q 1159 1288 1364 580 
Q 1569 -128 1984 -844 
L 1484 -844 
Q 1016 -109 783 600 
Q 550 1309 550 2009 
Q 550 2706 781 3412 
Q 1013 4119 1484 4856 
L 1984 4856 
z
" transform="scale(0.015625)"/>
       <path id="DejaVuSans-4e" d="M 628 4666 
L 1478 4666 
L 3547 763 
L 3547 4666 
L 4159 4666 
L 4159 0 
L 3309 0 
L 1241 3903 
L 1241 0 
L 628 0 
L 628 4666 
z
" transform="scale(0.015625)"/>
       <path id="DejaVuSans-61" d="M 2194 1759 
Q 1497 1759 1228 1600 
Q 959 1441 959 1056 
Q 959 750 1161 570 
Q 1363 391 1709 391 
Q 2188 391 2477 730 
Q 2766 1069 2766 1631 
L 2766 1759 
L 2194 1759 
z
M 3341 1997 
L 3341 0 
L 2766 0 
L 2766 531 
Q 2569 213 2275 61 
Q 1981 -91 1556 -91 
Q 1019 -91 701 211 
Q 384 513 384 1019 
Q 384 1609 779 1909 
Q 1175 2209 1959 2209 
L 2766 2209 
L 2766 2266 
Q 2766 2663 2505 2880 
Q 2244 3097 1772 3097 
Q 1472 3097 1187 3025 
Q 903 2953 641 2809 
L 641 3341 
Q 956 3463 1253 3523 
Q 1550 3584 1831 3584 
Q 2591 3584 2966 3190 
Q 3341 2797 3341 1997 
z
" transform="scale(0.015625)"/>
       <path id="DejaVuSans-76" d="M 191 3500 
L 800 3500 
L 1894 563 
L 2988 3500 
L 3597 3500 
L 2284 0 
L 1503 0 
L 191 3500 
z
" transform="scale(0.015625)"/>
       <path id="DejaVuSans-4d" d="M 628 4666 
L 1569 4666 
L 2759 1491 
L 3956 4666 
L 4897 4666 
L 4897 0 
L 4281 0 
L 4281 4097 
L 3078 897 
L 2444 897 
L 1241 4097 
L 1241 0 
L 628 0 
L 628 4666 
z
" transform="scale(0.015625)"/>
       <path id="DejaVuSans-6e" d="M 3513 2113 
L 3513 0 
L 2938 0 
L 2938 2094 
Q 2938 2591 2744 2837 
Q 2550 3084 2163 3084 
Q 1697 3084 1428 2787 
Q 1159 2491 1159 1978 
L 1159 0 
L 581 0 
L 581 3500 
L 1159 3500 
L 1159 2956 
Q 1366 3272 1645 3428 
Q 1925 3584 2291 3584 
Q 2894 3584 3203 3211 
Q 3513 2838 3513 2113 
z
" transform="scale(0.015625)"/>
       <path id="DejaVuSans-29" d="M 513 4856 
L 1013 4856 
Q 1481 4119 1714 3412 
Q 1947 2706 1947 2009 
Q 1947 1309 1714 600 
Q 1481 -109 1013 -844 
L 513 -844 
Q 928 -128 1133 580 
Q 1338 1288 1338 2009 
Q 1338 2731 1133 3434 
Q 928 4138 513 4856 
z
" transform="scale(0.015625)"/>
      </defs>
      <use xlink:href="#DejaVuSans-50"/>
      <use xlink:href="#DejaVuSans-72" x="58.552734"/>
      <use xlink:href="#DejaVuSans-65" x="97.416016"/>
      <use xlink:href="#DejaVuSans-64" x="158.939453"/>
      <use xlink:href="#DejaVuSans-69" x="222.416016"/>
      <use xlink:href="#DejaVuSans-63" x="250.199219"/>
      <use xlink:href="#DejaVuSans-74" x="305.179688"/>
      <use xlink:href="#DejaVuSans-20" x="344.388672"/>
      <use xlink:href="#DejaVuSans-28" x="376.175781"/>
      <use xlink:href="#DejaVuSans-4e" x="415.189453"/>
      <use xlink:href="#DejaVuSans-61" x="489.994141"/>
      <use xlink:href="#DejaVuSans-69" x="551.273438"/>
      <use xlink:href="#DejaVuSans-76" x="579.056641"/>
      <use xlink:href="#DejaVuSans-65" x="638.236328"/>
      <use xlink:href="#DejaVuSans-20" x="699.759766"/>
      <use xlink:href="#DejaVuSans-4d" x="731.546875"/>
      <use xlink:href="#DejaVuSans-65" x="817.826172"/>
      <use xlink:href="#DejaVuSans-64" x="879.349609"/>
      <use xlink:href="#DejaVuSans-69" x="942.826172"/>
      <use xlink:href="#DejaVuSans-61" x="970.609375"/>
      <use xlink:href="#DejaVuSans-6e" x="1031.888672"/>
      <use xlink:href="#DejaVuSans-29" x="1095.267578"/>
     </g>
    </g>
    <g id="line2d_26">
     <path d="M 1484.38 81.918171 
L 1500.38 81.918171 
L 1516.38 81.918171 
" style="fill: none; stroke: #1ac938; stroke-opacity: 0.8; stroke-width: 2.5; stroke-linecap: square"/>
    </g>
    <g id="text_18">
     <!-- Predict (Naive Mean) -->
     <g transform="translate(1529.18 87.518171) scale(0.16 -0.16)">
      <use xlink:href="#DejaVuSans-50"/>
      <use xlink:href="#DejaVuSans-72" x="58.552734"/>
      <use xlink:href="#DejaVuSans-65" x="97.416016"/>
      <use xlink:href="#DejaVuSans-64" x="158.939453"/>
      <use xlink:href="#DejaVuSans-69" x="222.416016"/>
      <use xlink:href="#DejaVuSans-63" x="250.199219"/>
      <use xlink:href="#DejaVuSans-74" x="305.179688"/>
      <use xlink:href="#DejaVuSans-20" x="344.388672"/>
      <use xlink:href="#DejaVuSans-28" x="376.175781"/>
      <use xlink:href="#DejaVuSans-4e" x="415.189453"/>
      <use xlink:href="#DejaVuSans-61" x="489.994141"/>
      <use xlink:href="#DejaVuSans-69" x="551.273438"/>
      <use xlink:href="#DejaVuSans-76" x="579.056641"/>
      <use xlink:href="#DejaVuSans-65" x="638.236328"/>
      <use xlink:href="#DejaVuSans-20" x="699.759766"/>
      <use xlink:href="#DejaVuSans-4d" x="731.546875"/>
      <use xlink:href="#DejaVuSans-65" x="817.826172"/>
      <use xlink:href="#DejaVuSans-61" x="879.349609"/>
      <use xlink:href="#DejaVuSans-6e" x="940.628906"/>
      <use xlink:href="#DejaVuSans-29" x="1004.007812"/>
     </g>
    </g>
   </g>
  </g>
 </g>
 <defs>
  <clipPath id="p6ba1999472">
   <rect x="65.11" y="13.990671" width="1404.87" height="314.529329"/>
  </clipPath>
 </defs>
</svg>
